%YAML 1.1
%TAG !u! tag:unity3d.com,2011:
--- !u!114 &11400000
MonoBehaviour:
  m_ObjectHideFlags: 0
  m_CorrespondingSourceObject: {fileID: 0}
  m_PrefabInstance: {fileID: 0}
  m_PrefabAsset: {fileID: 0}
  m_GameObject: {fileID: 0}
  m_Enabled: 1
  m_EditorHideFlags: 0
  m_Script: {fileID: 11500000, guid: 41d28418d2ade9d4da787f1e34a00f14, type: 3}
  m_Name: PlayerDefault
  m_EditorClassIdentifier: 
  spritE: {fileID: 0}
  attack: 0
  magic: 0
  defense: 0
  magicdefense: 0
  movement: 0
  healthPoints: 0
  healthPointsMax: 0
  backpack: {fileID: 11400000, guid: a268b0999d5af45468d95d279e0ee56f, type: 2}
  armor: {fileID: 11400000, guid: 580fbbac9331ea242a04f4eefd28ea12, type: 2}
  weapon: {fileID: 11400000, guid: 1313d75f5a5eb9847933924314c49586, type: 2}
  attackList:
  - {fileID: 11400000, guid: 7ad821baaa54d824da12f9b361a5d5f7, type: 2}
  effect: 0
