%YAML 1.1
%TAG !u! tag:unity3d.com,2011:
--- !u!114 &11400000
MonoBehaviour:
  m_ObjectHideFlags: 0
  m_CorrespondingSourceObject: {fileID: 0}
  m_PrefabInstance: {fileID: 0}
  m_PrefabAsset: {fileID: 0}
  m_GameObject: {fileID: 0}
  m_Enabled: 1
  m_EditorHideFlags: 0
  m_Script: {fileID: 11500000, guid: c527087b3eab29941a5091a1c9cd0197, type: 3}
  m_Name: ArmorLegendariaReparada
  m_EditorClassIdentifier: 
  name: Armadura legendaria reparada
  spritE: {fileID: -146080553, guid: 0852e59d67fe6ae4491d6045cb80405c, type: 3}
  attack: 12
  magic: 12
  defense: 12
  magicdefense: 12
  typeEquip: 0
