%YAML 1.1
%TAG !u! tag:unity3d.com,2011:
--- !u!114 &11400000
MonoBehaviour:
  m_ObjectHideFlags: 0
  m_CorrespondingSourceObject: {fileID: 0}
  m_PrefabInstance: {fileID: 0}
  m_PrefabAsset: {fileID: 0}
  m_GameObject: {fileID: 0}
  m_Enabled: 1
  m_EditorHideFlags: 0
  m_Script: {fileID: 11500000, guid: c527087b3eab29941a5091a1c9cd0197, type: 3}
  m_Name: Palo
  m_EditorClassIdentifier: 
  name: Palo
  spritE: {fileID: 169253109, guid: 2696861b90be02e478c83270c67e8f84, type: 3}
  attack: 1
  magic: 0
  defense: 0
  magicdefense: 0
  typeEquip: 1
