%YAML 1.1
%TAG !u! tag:unity3d.com,2011:
--- !u!114 &11400000
MonoBehaviour:
  m_ObjectHideFlags: 0
  m_CorrespondingSourceObject: {fileID: 0}
  m_PrefabInstance: {fileID: 0}
  m_PrefabAsset: {fileID: 0}
  m_GameObject: {fileID: 0}
  m_Enabled: 1
  m_EditorHideFlags: 0
  m_Script: {fileID: 11500000, guid: e5f3c4d9c9cc89143875c2fc096925ca, type: 3}
  m_Name: Backpack
  m_EditorClassIdentifier: 
  m_ItemSlots:
  - Item: {fileID: 11400000, guid: 9c81b8c686a58bf458dbe78e797f329a, type: 2}
    Amount: 1
  - Item: {fileID: 11400000, guid: 318c787d3892dde4da2dbb003293eef4, type: 2}
    Amount: 1
  - Item: {fileID: 11400000, guid: 318c787d3892dde4da2dbb003293eef4, type: 2}
    Amount: 1
